…
ageplot<- df.employee%>%group_by(Age)%>%summarise(mean=mean(MonthlyIncome),count=n())
ageplot

## # A tibble: 43 x 3
##      Age  mean count
##    <dbl> <dbl> <int>
##  1    18 1581.     6
##  2    19 2090.     7
##  3    20 2463.     9
##  4    21 2475.    12
##  5    22 3084.    12
##  6    23 2528.    10
##  7    24 3522.    17
##  8    25 4060.    23
##  9    26 3528.    36
## 10    27 4352.    39
## # ... with 33 more rows
…
